[07-May-2021 11:33:36 Europe/Berlin] Config writable 1
[07-May-2021 11:33:36 Europe/Berlin] Config exists 1
[07-May-2021 11:34:28 Europe/Berlin] isConfigFileExists 1
[07-May-2021 11:34:28 Europe/Berlin] configData 
[07-May-2021 11:34:28 Europe/Berlin] Number of tables:0
[07-May-2021 11:37:38 Europe/Berlin] Config writable 1
[07-May-2021 11:37:38 Europe/Berlin] Config exists 1
[07-May-2021 11:37:48 Europe/Berlin] isConfigFileExists 1
[07-May-2021 11:37:48 Europe/Berlin] configData 
[07-May-2021 11:37:48 Europe/Berlin] Number of tables:0
[07-May-2021 11:37:51 Europe/Berlin] isConfigFileExists 1
[07-May-2021 11:37:51 Europe/Berlin] configData 
[07-May-2021 11:37:51 Europe/Berlin] Number of tables:0
